{
  "project_info": {
    "project_number": "1044862703667",
    "firebase_url": "https://andoidfcmnew.firebaseio.com",
    "project_id": "andoidfcmnew",
    "storage_bucket": "andoidfcmnew.appspot.com"
  },
  "client": [
    {
      "client_info": {
        "mobilesdk_app_id": "1:1044862703667:android:bac44d0f31c88a4ad9ab46",
        "android_client_info": {
          "package_name": "com.example.tebavet"
        }
      },
      "oauth_client": [
        {
          "client_id": "1044862703667-3j44taffakjk25bl4bpnqnr3frrvtrup.apps.googleusercontent.com",
          "client_type": 1,
          "android_info": {
            "package_name": "com.example.tebavet",
            "certificate_hash": "3fd46553440ab030ad5f3e5058fe50157f18ba5f"
          }
        },
        {
          "client_id": "1044862703667-gm1na50cbjo3hiu08dv2n1o2svhl3lpv.apps.googleusercontent.com",
          "client_type": 3
        }
      ],
      "api_key": [
        {
          "current_key": "AIzaSyDo8ymiKooOJT9Cqx7AffPNHKx1WzsquU8"
        }
      ],
      "services": {
        "appinvite_service": {
          "other_platform_oauth_client": [
            {
              "client_id": "1044862703667-gm1na50cbjo3hiu08dv2n1o2svhl3lpv.apps.googleusercontent.com",
              "client_type": 3
            }
          ]
        }
      }
    },
    {
      "client_info": {
        "mobilesdk_app_id": "1:1044862703667:android:e559c623b1082edbd9ab46",
        "android_client_info": {
          "package_name": "dev.edmt"
        }
      },
      "oauth_client": [
        {
          "client_id": "1044862703667-e2eaco41i940mvhjagtbi236l2pflut9.apps.googleusercontent.com",
          "client_type": 1,
          "android_info": {
            "package_name": "dev.edmt",
            "certificate_hash": "3fd46553440ab030ad5f3e5058fe50157f18ba5f"
          }
        },
        {
          "client_id": "1044862703667-gm1na50cbjo3hiu08dv2n1o2svhl3lpv.apps.googleusercontent.com",
          "client_type": 3
        }
      ],
      "api_key": [
        {
          "current_key": "AIzaSyDo8ymiKooOJT9Cqx7AffPNHKx1WzsquU8"
        }
      ],
      "services": {
        "appinvite_service": {
          "other_platform_oauth_client": [
            {
              "client_id": "1044862703667-gm1na50cbjo3hiu08dv2n1o2svhl3lpv.apps.googleusercontent.com",
              "client_type": 3
            }
          ]
        }
      }
    }
  ],
  "configuration_version": "1"
}